{
  "project_info": {
    "project_number": "377394863461",
    "firebase_url": "https://coba-34182.firebaseio.com",
    "project_id": "coba-34182",
    "storage_bucket": "coba-34182.appspot.com"
  },
  "client": [
    {
      "client_info": {
        "mobilesdk_app_id": "1:377394863461:android:c5c2d0dd1decf20b",
        "android_client_info": {
          "package_name": "com.amx.realmrifqi"
        }
      },
      "oauth_client": [
        {
          "client_id": "377394863461-5g6os7umjcouol892aukg5ck6vhoi2m5.apps.googleusercontent.com",
          "client_type": 3
        }
      ],
      "api_key": [
        {
          "current_key": "AIzaSyBsgKAW_Lj80sPLXG7iI9559SRQC6i4uKk"
        }
      ],
      "services": {
        "appinvite_service": {
          "other_platform_oauth_client": [
            {
              "client_id": "377394863461-5g6os7umjcouol892aukg5ck6vhoi2m5.apps.googleusercontent.com",
              "client_type": 3
            }
          ]
        }
      }
    }
  ],
  "configuration_version": "1"
}